%YAML 1.1
%TAG !u! tag:unity3d.com,2011:
--- !u!74 &7400000
AnimationClip:
  m_ObjectHideFlags: 0
  m_CorrespondingSourceObject: {fileID: 0}
  m_PrefabInstance: {fileID: 0}
  m_PrefabAsset: {fileID: 0}
  m_Name: Attack
  serializedVersion: 6
  m_Legacy: 0
  m_Compressed: 0
  m_UseHighQualityCurve: 1
  m_RotationCurves: []
  m_CompressedRotationCurves: []
  m_EulerCurves: []
  m_PositionCurves: []
  m_ScaleCurves: []
  m_FloatCurves: []
  m_PPtrCurves:
  - curve:
    - time: 0
      value: {fileID: -6014854275350682528, guid: 6f6c834d7225bc141862a3033ad3a80c,
        type: 3}
    - time: 0.13333334
      value: {fileID: 5179906125871286598, guid: 6f6c834d7225bc141862a3033ad3a80c,
        type: 3}
    - time: 0.25
      value: {fileID: -1308827184595644429, guid: 6f6c834d7225bc141862a3033ad3a80c,
        type: 3}
    - time: 0.38333333
      value: {fileID: 2640012314773392344, guid: 6f6c834d7225bc141862a3033ad3a80c,
        type: 3}
    - time: 0.51666665
      value: {fileID: -2056482287553655689, guid: 6f6c834d7225bc141862a3033ad3a80c,
        type: 3}
    - time: 0.6166667
      value: {fileID: -8995485352130813372, guid: 6f6c834d7225bc141862a3033ad3a80c,
        type: 3}
    - time: 0.75
      value: {fileID: 8886161708615391911, guid: 6f6c834d7225bc141862a3033ad3a80c,
        type: 3}
    - time: 0.8666667
      value: {fileID: -2392962986800102977, guid: 6f6c834d7225bc141862a3033ad3a80c,
        type: 3}
    - time: 1
      value: {fileID: 537988590183208327, guid: 6f6c834d7225bc141862a3033ad3a80c,
        type: 3}
    attribute: m_Sprite
    path: 
    classID: 212
    script: {fileID: 0}
  m_SampleRate: 60
  m_WrapMode: 0
  m_Bounds:
    m_Center: {x: 0, y: 0, z: 0}
    m_Extent: {x: 0, y: 0, z: 0}
  m_ClipBindingConstant:
    genericBindings:
    - serializedVersion: 2
      path: 0
      attribute: 0
      script: {fileID: 0}
      typeID: 212
      customType: 23
      isPPtrCurve: 1
    pptrCurveMapping:
    - {fileID: -6014854275350682528, guid: 6f6c834d7225bc141862a3033ad3a80c, type: 3}
    - {fileID: 5179906125871286598, guid: 6f6c834d7225bc141862a3033ad3a80c, type: 3}
    - {fileID: -1308827184595644429, guid: 6f6c834d7225bc141862a3033ad3a80c, type: 3}
    - {fileID: 2640012314773392344, guid: 6f6c834d7225bc141862a3033ad3a80c, type: 3}
    - {fileID: -2056482287553655689, guid: 6f6c834d7225bc141862a3033ad3a80c, type: 3}
    - {fileID: -8995485352130813372, guid: 6f6c834d7225bc141862a3033ad3a80c, type: 3}
    - {fileID: 8886161708615391911, guid: 6f6c834d7225bc141862a3033ad3a80c, type: 3}
    - {fileID: -2392962986800102977, guid: 6f6c834d7225bc141862a3033ad3a80c, type: 3}
    - {fileID: 537988590183208327, guid: 6f6c834d7225bc141862a3033ad3a80c, type: 3}
  m_AnimationClipSettings:
    serializedVersion: 2
    m_AdditiveReferencePoseClip: {fileID: 0}
    m_AdditiveReferencePoseTime: 0
    m_StartTime: 0
    m_StopTime: 1.0166667
    m_OrientationOffsetY: 0
    m_Level: 0
    m_CycleOffset: 0
    m_HasAdditiveReferencePose: 0
    m_LoopTime: 1
    m_LoopBlend: 0
    m_LoopBlendOrientation: 0
    m_LoopBlendPositionY: 0
    m_LoopBlendPositionXZ: 0
    m_KeepOriginalOrientation: 0
    m_KeepOriginalPositionY: 1
    m_KeepOriginalPositionXZ: 0
    m_HeightFromFeet: 0
    m_Mirror: 0
  m_EditorCurves: []
  m_EulerEditorCurves: []
  m_HasGenericRootTransform: 0
  m_HasMotionFloatCurves: 0
  m_Events: []
